31171 691798 509
656035 858547 525
893750 398061 525
855047 780730 525
181495 943857 525
246696 417141 449
999035 610521 525
763075 428941 509
530570 615549 452
280275 274010 389
869502 454589 525
273997 762154 509
778895 633775 504
493073 112979 449
960148 587532 525
658436 405356 509
336447 205764 443
458900 602499 470
514902 166996 470
261014 295268 407
322613 714152 509
489700 440194 444
691542 116911 509
238402 901654 525
132731 162669 383
200204 753210 509
720162 171146 509
635753 342352 509
685851 135818 509
314791 868406 525
416767 278159 449
854326 655107 525
254207 229451 443
135177 918160 525
470973 21478 449
724565 566747 509
9807 228563 386
969416 55635 525
400963 836844 509
191372 238479 443
656714 18470 509
991977 429427 525
192976 843185 525
218561 152859 386
12085 438251 449
56210 658313 509
647617 818046 504
106760 887513 525
930435 461132 525
154948 905634 525
47690 417572 449
509946 751622 509
621716 692186 509
183237 893832 525
181808 636526 509
803769 31748 509
334910 258919 407
543211 390232 470
618796 855305 525
225788 245332 443
422214 647571 509
920880 743798 525
815823 315418 509
411635 564523 470
480814 662340 509
835854 113514 509
947044 917258 507
37987 266907 443
240343 824601 509
494991 776406 509
331127 527037 470
932343 358486 525
310809 418821 449
145 744700 509
830129 221927 509
644722 925390 525
459302 452023 369
437236 86161 449
913274 564552 525
2798 171515 383
909421 639877 525
728008 44341 509
582744 262567 470
473179 798134 509
167222 619103 470
769850 310114 509
755760 487149 509
668378 956008 525
19087 621526 470
721781 185554 509
51637 764949 509
640160 855621 525
151185 986488 525
112535 919330 525
427390 707903 509
618084 142979 470
971062 441596 525
195825 593887 470
505868 510047 382
29458 270885 443
13979 916214 525
671019 549507 509
194799 54731 383
925722 37760 525
697943 135898 509
854310 816572 525
4464 281693 443
995460 243252 525
756174 606953 509
326878 135013 443
593713 62091 470
672462 323904 509
763447 135526 509
214977 17812 383
537287 655551 509
133982 261429 443
283013 523679 470
438623 369127 449
170707 252467 443
832941 850833 525
273749 953935 525
783580 569117 509
16942 46713 324
546704 818471 509
417814 955504 525
42884 359910 443
230205 847085 525
407586 201092 443
668873 652741 442
669327 129696 509
426377 391169 449
138660 159518 383
384415 968741 525
299102 876873 525
429106 942425 525
629755 40831 509
787990 556132 509
763611 446571 509
582450 309070 470
301160 623340 470
727527 237223 509
522379 110764 470
601384 715100 509
245831 177882 443
357416 78886 443
408671 374556 436
515042 329617 470
19251 63005 340
773141 347166 509
29713 796898 509
787619 757509 468
272339 346147 441
551024 238692 470
887387 689025 525
322542 253612 407
441487 557807 470
856903 929103 476
766167 732515 424
741218 96798 509
157613 244078 443
595423 771026 509
24205 459996 449
573839 881350 525
664444 836958 504
977825 976346 334
52618 592635 470
826182 411176 509
42522 391805 443
612747 232278 470
383038 412669 449
831470 792058 468
963954 581827 525
266648 349980 441
852964 684220 525
852172 403501 525
274442 359145 441
396747 125172 443
16648 26639 308
464821 192369 449
8243 801193 509
834457 338445 509
358902 132966 443
315402 199268 443
304502 896860 525
448967 963233 525
62672 680550 509
781152 676920 504
781089 662742 504
508879 236473 449
895939 51001 525
858599 539968 525
202507 387304 443
850336 451825 525
985490 202162 525
18868 463400 449
197000 776037 509
773671 579122 509
589907 651628 509
39551 577701 470
276851 132566 443
886205 577523 525
373438 752562 509
51945 478109 449
39018 95123 351
266340 394091 441
599401 104371 470
468467 584100 470
900207 865275 445
480844 109738 449
530965 871589 525
297138 906579 525
463480 575472 470
97859 404993 443
232232 53457 443
500538 977242 525
562160 880817 525
478840 972468 525
990593 858819 507
327475 493419 449
967668 356908 525
878306 976238 507
48044 800661 509
716024 813970 468
113856 467126 449
678847 547442 509
254708 946031 525
211796 994351 525
819755 397449 509
136457 264890 443
92317 892179 525
196880 897754 525
328619 992936 525
171830 777786 509
582373 757119 509
135580 51955 354
472008 741297 509
577176 956541 525
836968 366041 509
39376 507604 449
102681 314884 443
764881 306470 509
992424 413096 525
799490 359918 509
616233 128494 470
961583 492214 525
767502 766874 318
235083 433916 449
265447 890580 525
307613 316948 384
221859 393755 443
